0,0351	-0,2098
0,0176	-0,2099
0,0000	-0,2100
-0,0176	-0,2099
-0,0351	-0,2098
0,0440	-0,1954
0,0265	-0,1956
0,0089	-0,1957
-0,0088	-0,1957
-0,0265	-0,1956
-0,0440	-0,1954
0,0530	-0,1808
0,0354	-0,1810
0,0177	-0,1811
0,0000	-0,1812
-0,0177	-0,1811
-0,0354	-0,1810
-0,0530	-0,1808
0,0621	-0,1660
0,0444	-0,1663
0,0267	-0,1664
0,0089	-0,1665
-0,0089	-0,1665
-0,0267	-0,1664
-0,0444	-0,1663
-0,0621	-0,1660
0,0711	-0,1511
0,0534	-0,1514
0,0357	-0,1516
0,0179	-0,1517
0,0000	-0,1517
-0,0179	-0,1517
-0,0357	-0,1516
-0,0534	-0,1514
-0,0711	-0,1511
0,0625	-0,1363
0,0447	-0,1365
0,0269	-0,1366
0,0090	-0,1367
-0,0090	-0,1367
-0,0269	-0,1366
-0,0447	-0,1365
-0,0625	-0,1363
0,0538	-0,1213
0,0359	-0,1215
0,0180	-0,1216
0,0000	-0,1216
-0,0180	-0,1216
-0,0359	-0,1215
-0,0538	-0,1213
0,0450	-0,1061
0,0270	-0,1063
0,0090	-0,1063
-0,0090	-0,1063
-0,0270	-0,1063
-0,0450	-0,1062
0,0361	-0,0909
0,0181	-0,0909
0,0000	-0,0910
-0,0181	-0,0909
-0,0361	-0,0909
-0,0953	-0,1371
-0,1128	-0,1367
-0,1301	-0,1363
-0,1472	-0,1358
-0,1642	-0,1353
-0,0868	-0,1223
-0,1044	-0,1219
-0,1218	-0,1216
-0,1390	-0,1212
-0,1561	-0,1207
-0,1730	-0,1202
-0,0782	-0,1072
-0,0958	-0,1070
-0,1134	-0,1066
-0,1308	-0,1063
-0,1480	-0,1059
-0,1650	-0,1055
-0,1818	-0,1050
-0,0694	-0,0920
-0,0872	-0,0918
-0,1049	-0,0916
-0,1224	-0,0913
-0,1398	-0,0910
-0,1569	-0,0906
-0,1738	-0,0902
-0,1906	-0,0898
-0,0606	-0,0767
-0,0785	-0,0765
-0,0963	-0,0763
-0,1139	-0,0761
-0,1314	-0,0759
-0,1487	-0,0756
-0,1657	-0,0752
-0,1826	-0,0749
-0,1992	-0,0746
-0,0697	-0,0611
-0,0876	-0,0610
-0,1053	-0,0608
-0,1229	-0,0606
-0,1403	-0,0604
-0,1574	-0,0601
-0,1744	-0,0598
-0,1912	-0,0596
-0,0788	-0,0455
-0,0966	-0,0454
-0,1142	-0,0452
-0,1317	-0,0451
-0,1491	-0,0449
-0,1662	-0,0447
-0,1831	-0,0445
-0,0878	-0,0298
-0,1055	-0,0298
-0,1231	-0,0296
-0,1406	-0,0296
-0,1578	-0,0294
-0,1748	-0,0293
-0,0967	-0,0142
-0,1144	-0,0142
-0,1320	-0,0141
-0,1493	-0,0140
-0,1664	-0,0140
0,1642	-0,1353
0,1472	-0,1358
0,1301	-0,1363
0,1128	-0,1367
0,0953	-0,1371
0,1730	-0,1202
0,1561	-0,1207
0,1390	-0,1212
0,1218	-0,1215
0,1044	-0,1219
0,0868	-0,1223
0,1818	-0,1050
0,1650	-0,1055
0,1480	-0,1059
0,1308	-0,1063
0,1134	-0,1066
0,0959	-0,1070
0,0782	-0,1072
0,1906	-0,0898
0,1739	-0,0902
0,1569	-0,0906
0,1398	-0,0910
0,1224	-0,0913
0,1049	-0,0916
0,0872	-0,0918
0,0695	-0,0920
0,1992	-0,0746
0,1826	-0,0749
0,1657	-0,0752
0,1487	-0,0756
0,1314	-0,0759
0,1139	-0,0761
0,0963	-0,0763
0,0785	-0,0765
0,0606	-0,0767
0,1912	-0,0596
0,1744	-0,0598
0,1574	-0,0601
0,1403	-0,0604
0,1229	-0,0606
0,1053	-0,0608
0,0876	-0,0610
0,0697	-0,0611
0,1831	-0,0445
0,1662	-0,0447
0,1491	-0,0449
0,1317	-0,0451
0,1142	-0,0452
0,0966	-0,0454
0,0788	-0,0455
0,1748	-0,0293
0,1578	-0,0294
0,1405	-0,0295
0,1231	-0,0296
0,1055	-0,0298
0,0878	-0,0298
0,1664	-0,0140
0,1493	-0,0140
0,1320	-0,0141
0,1144	-0,0141
0,0967	-0,0142
0,0362	-0,0627
0,0181	-0,0628
0,0000	-0,0628
-0,0181	-0,0628
-0,0362	-0,0627
0,0453	-0,0471
0,0272	-0,0471
0,0091	-0,0472
-0,0091	-0,0472
-0,0272	-0,0471
-0,0453	-0,0471
0,0544	-0,0314
0,0363	-0,0314
0,0182	-0,0314
0,0000	-0,0315
-0,0182	-0,0315
-0,0363	-0,0314
-0,0544	-0,0314
0,0635	-0,0157
0,0454	-0,0157
0,0273	-0,0157
0,0091	-0,0158
-0,0091	-0,0158
-0,0273	-0,0157
-0,0454	-0,0157
-0,0635	-0,0157
0,0725	0,0000
0,0545	0,0000
0,0364	0,0000
0,0182	0,0000
0,0000	0,0000
-0,0182	0,0000
-0,0364	0,0000
-0,0545	0,0000
-0,0725	0,0000
0,0635	0,0157
0,0454	0,0157
0,0273	0,0157
0,0091	0,0158
-0,0091	0,0158
-0,0273	0,0157
-0,0454	0,0157
-0,0635	0,0157
0,0544	0,0314
0,0363	0,0314
0,0182	0,0315
0,0000	0,0315
-0,0182	0,0314
-0,0363	0,0314
-0,0544	0,0314
0,0453	0,0471
0,0272	0,0471
0,0091	0,0472
-0,0091	0,0472
-0,0272	0,0471
-0,0453	0,0471
0,0362	0,0627
0,0181	0,0628
0,0000	0,0628
-0,0182	0,0628
-0,0362	0,0627
-0,0967	0,0142
-0,1144	0,0141
-0,1320	0,0141
-0,1493	0,0140
-0,1664	0,0140
-0,0878	0,0298
-0,1055	0,0298
-0,1231	0,0296
-0,1405	0,0295
-0,1578	0,0294
-0,1748	0,0293
-0,0788	0,0455
-0,0966	0,0454
-0,1142	0,0452
-0,1317	0,0451
-0,1491	0,0449
-0,1662	0,0447
-0,1831	0,0445
-0,0697	0,0611
-0,0876	0,0610
-0,1053	0,0608
-0,1229	0,0606
-0,1403	0,0604
-0,1574	0,0601
-0,1744	0,0598
-0,1912	0,0596
-0,0606	0,0767
-0,0785	0,0765
-0,0963	0,0763
-0,1139	0,0761
-0,1314	0,0759
-0,1487	0,0756
-0,1657	0,0752
-0,1826	0,0749
-0,1992	0,0746
-0,0695	0,0920
-0,0872	0,0918
-0,1049	0,0916
-0,1224	0,0913
-0,1398	0,0910
-0,1569	0,0906
-0,1739	0,0902
-0,1906	0,0898
-0,0782	0,1072
-0,0959	0,1070
-0,1134	0,1066
-0,1308	0,1063
-0,1480	0,1059
-0,1650	0,1055
-0,1818	0,1050
-0,0868	0,1223
-0,1044	0,1219
-0,1218	0,1215
-0,1390	0,1212
-0,1561	0,1207
-0,1730	0,1202
-0,0953	0,1371
-0,1128	0,1367
-0,1301	0,1363
-0,1472	0,1358
-0,1642	0,1353
0,1664	0,0140
0,1493	0,0140
0,1320	0,0141
0,1144	0,0142
0,0967	0,0142
0,1748	0,0293
0,1578	0,0294
0,1406	0,0296
0,1231	0,0296
0,1055	0,0298
0,0878	0,0298
0,1831	0,0445
0,1662	0,0447
0,1491	0,0449
0,1317	0,0451
0,1142	0,0452
0,0966	0,0454
0,0788	0,0455
0,1912	0,0596
0,1744	0,0598
0,1574	0,0601
0,1403	0,0604
0,1229	0,0606
0,1053	0,0608
0,0876	0,0610
0,0697	0,0611
0,1992	0,0746
0,1826	0,0749
0,1657	0,0752
0,1487	0,0756
0,1314	0,0759
0,1139	0,0761
0,0963	0,0763
0,0785	0,0765
0,0606	0,0767
0,1906	0,0898
0,1738	0,0902
0,1569	0,0906
0,1398	0,0910
0,1224	0,0913
0,1049	0,0916
0,0872	0,0918
0,0694	0,0920
0,1818	0,1050
0,1650	0,1055
0,1480	0,1059
0,1308	0,1063
0,1134	0,1066
0,0958	0,1070
0,0782	0,1072
0,1730	0,1202
0,1561	0,1207
0,1390	0,1212
0,1218	0,1216
0,1044	0,1219
0,0868	0,1223
0,1642	0,1353
0,1472	0,1358
0,1301	0,1363
0,1128	0,1367
0,0953	0,1371
0,0361	0,0909
0,0180	0,0909
0,0000	0,0910
-0,0180	0,0909
-0,0361	0,0909
0,0449	0,1062
0,0270	0,1063
0,0090	0,1063
-0,0090	0,1063
-0,0270	0,1063
-0,0450	0,1061
0,0538	0,1213
0,0359	0,1215
0,0180	0,1216
0,0000	0,1216
-0,0180	0,1216
-0,0359	0,1215
-0,0538	0,1213
0,0625	0,1363
0,0447	0,1365
0,0268	0,1366
0,0089	0,1367
-0,0089	0,1367
-0,0268	0,1366
-0,0447	0,1365
-0,0625	0,1363
0,0711	0,1511
0,0534	0,1513
0,0356	0,1515
0,0179	0,1517
0,0000	0,1517
-0,0179	0,1517
-0,0356	0,1515
-0,0534	0,1513
-0,0711	0,1511
0,0620	0,1660
0,0443	0,1663
0,0266	0,1664
0,0089	0,1665
-0,0089	0,1665
-0,0266	0,1664
-0,0444	0,1663
-0,0620	0,1660
0,0530	0,1808
0,0354	0,1810
0,0177	0,1811
0,0000	0,1812
-0,0177	0,1811
-0,0354	0,1810
-0,0530	0,1808
0,0440	0,1954
0,0265	0,1956
0,0088	0,1957
-0,0089	0,1957
-0,0265	0,1956
-0,0440	0,1954
0,0351	0,2098
0,0175	0,2099
0,0000	0,2100
-0,0175	0,2099
-0,0351	0,2098
